Adding data
…
Which county has the most bakers in 1851?

census_data %>%
  filter(occupation_label == 'baker') %>% # select only records with occup 'baker'
  group_by(county_name) %>%
  tally(occupation_count) %>% # count bakers, grouped by county
  arrange(desc(n)) # sort descending on number of bakers

## # A tibble: 42 x 2
##    county_name               n
##    <chr>                 <dbl>
##  1 London                10321
##  2 Lancashire             3503
##  3 Kent                   1681
##  4 Devonshire             1552
##  5 Hampshire              1364
##  6 Somerset               1353
##  7 Gloucestershire        1338
##  8 Essex                  1214
##  9 Warwickshire           1180
## 10 Yorkshire West Riding  1141
## # … with 32 more rows

Percentage secondary-sector workers per district

districts_data <- census_data %>%
  group_by(district_id, district_name, pst_a_label) %>%
  tally(occupation_count) %>%
  spread(pst_a_label, n)

districts_data <- districts_data %>%
  mutate(total = primary + secondary + tertiary_dealers + tertiary_sellers + tertiary_services_professions + sector_unspecific + no_occupation) %>%
  mutate(pct_secondary = secondary / total)

districts_data

## # A tibble: 576 x 11
##    district_id district_name no_occupation primary secondary
##          <dbl> <chr>                 <dbl>   <dbl>     <dbl>
##  1           1 Kensington            21466    2274     12367
##  2           2 Chelsea               10610     529      7884
##  3           3 St George Ha…         12506     256      8937
##  4           4 Westminster           12973     343     10535
##  5           5 St Martins-i…          4187      72      4198
##  6           6 St James Wes…          5795     123      7619
##  7           7 Marylebone            27911    1140     24945
##  8           8 Hampstead              1860     293      1009
##  9           9 Pancras               31016     943     28843
## 10          10 Islington             18193     933     13589
## # … with 566 more rows, and 6 more variables: sector_unspecific <dbl>,
## #   tertiary_dealers <dbl>, tertiary_sellers <dbl>,
## #   tertiary_services_professions <dbl>, total <dbl>, pct_secondary <dbl>
…
Example: join spatial data on districts, and calculated data and percentages on occupations.

# load spatial data on districts
districts_spatial <- st_read(here('data/source/census_1851_districts/1851EngWalesRegistrationDistrict.shp')) %>%
  mutate(CEN1 = as.numeric(as.character(CEN1))) # make sure identifiers are the same type as in the district data

# add population data on district-level to the spatial data-set
districts <- left_join(districts_spatial, districts_data, by = c('CEN1' = 'district_id'))

districts

## # A tibble: 1,198 x 17
##     CEN1 R_DIST R_CTY R_DIVNO R_DIV R_CTRY district_name no_occupation
##    <dbl> <fct>  <fct> <fct>   <fct> <fct>  <chr>                 <dbl>
##  1     3 ST GE… LOND… I       LOND… ENGLA… St George Ha…         12506
##  2     6 ST. J… LOND… I       LOND… ENGLA… St James Wes…          5795
##  3     7 MARYL… LOND… I       LOND… ENGLA… Marylebone            27911
##  4     8 HAMPS… LOND… I       LOND… ENGLA… Hampstead              1860
##  5    10 ISLIN… LOND… I       LOND… ENGLA… Islington             18193
##  6    11 HACKN… LOND… I       LOND… ENGLA… Hackney               10897
##  7    12 ST GI… LOND… I       LOND… ENGLA… St Giles               9990
##  8    14 HOLBO… LOND… I       LOND… ENGLA… Holborn                8536
##  9    16 ST LU… LOND… I       LOND… ENGLA… St Luke                9881
## 10    18 WEST … LOND… I       LOND… ENGLA… West London            4836
## # … with 1,188 more rows, and 9 more variables: primary <dbl>,
## #   secondary <dbl>, sector_unspecific <dbl>, tertiary_dealers <dbl>,
## #   tertiary_sellers <dbl>, tertiary_services_professions <dbl>,
## #   total <dbl>, pct_secondary <dbl>, geometry <POLYGON [m]>
…
